<?xml version="1.0" encoding="UTF-8" standalone="no"?>
<svg
   xmlns:dc="http://purl.org/dc/elements/1.1/"
   xmlns:cc="http://creativecommons.org/ns#"
   xmlns:rdf="http://www.w3.org/1999/02/22-rdf-syntax-ns#"
   xmlns:svg="http://www.w3.org/2000/svg"
   xmlns="http://www.w3.org/2000/svg"
   xmlns:sodipodi="http://sodipodi.sourceforge.net/DTD/sodipodi-0.dtd"
   xmlns:inkscape="http://www.inkscape.org/namespaces/inkscape"
   enable-background="new 0 0 512 512"
   height="512px"
   id="Layer_1"
   version="1.1"
   viewBox="0 0 512 512"
   width="512px"
   xml:space="preserve"
   inkscape:version="0.48.4 r9939"
   sodipodi:docname="image_monitor.svg"><metadata
     id="metadata9"><rdf:RDF><cc:Work
         rdf:about=""><dc:format>image/svg+xml</dc:format><dc:type
           rdf:resource="http://purl.org/dc/dcmitype/StillImage" /><dc:title></dc:title></cc:Work></rdf:RDF></metadata><defs
     id="defs7" /><sodipodi:namedview
     pagecolor="#ffffff"
     bordercolor="#666666"
     borderopacity="1"
     objecttolerance="10"
     gridtolerance="10"
     guidetolerance="10"
     inkscape:pageopacity="0"
     inkscape:pageshadow="2"
     inkscape:window-width="1920"
     inkscape:window-height="1028"
     id="namedview5"
     showgrid="false"
     inkscape:zoom="1.3037281"
     inkscape:cx="129.89487"
     inkscape:cy="205.14162"
     inkscape:window-x="1280"
     inkscape:window-y="24"
     inkscape:window-maximized="1"
     inkscape:current-layer="Layer_1" /><path
     d="M480,0H32C14.328,0,0,14.312,0,32v352c0,17.688,14.328,32,32,32h192v32h-96c-17.672,0-32,14.312-32,32v32h320v-32  c0-17.688-14.328-32-32-32h-96v-32h192c17.672,0,32-14.312,32-32V32C512,14.312,497.672,0,480,0z M448,352H64V64h384V352z"
     id="path3" /><path
     sodipodi:type="arc"
     style="fill:#00ff00;stroke-width:11;stroke-miterlimit:4;stroke-dasharray:none"
     id="path3951"
     sodipodi:cx="129.24474"
     sodipodi:cy="127.33391"
     sodipodi:rx="17.2582"
     sodipodi:ry="14.190075"
     d="m 146.50294,127.33391 a 17.2582,14.190075 0 1 1 -34.5164,0 17.2582,14.190075 0 1 1 34.5164,0 z"
     transform="matrix(1.1588694,0,0,1.4094358,-17.791237,-57.944989)" /><path
     sodipodi:type="arc"
     style="fill:#ff0000;stroke-width:11;stroke-miterlimit:4;stroke-dasharray:none"
     id="path3951-9"
     sodipodi:cx="129.24474"
     sodipodi:cy="127.33391"
     sodipodi:rx="17.2582"
     sodipodi:ry="14.190075"
     d="m 146.50294,127.33391 a 17.2582,14.190075 0 1 1 -34.5164,0 17.2582,14.190075 0 1 1 34.5164,0 z"
     transform="matrix(1.1588694,0,0,1.4094358,-27.052796,24.184535)" /><path
     sodipodi:type="arc"
     style="fill:#0000ff;stroke-width:11;stroke-miterlimit:4;stroke-dasharray:none"
     id="path3951-1"
     sodipodi:cx="129.24474"
     sodipodi:cy="127.33391"
     sodipodi:rx="17.2582"
     sodipodi:ry="14.190075"
     d="m 146.50294,127.33391 a 17.2582,14.190075 0 1 1 -34.5164,0 17.2582,14.190075 0 1 1 34.5164,0 z"
     transform="matrix(1.1588694,0,0,1.4094358,55.01953,62.53609)" /><path
     sodipodi:type="arc"
     style="fill:#ff0000;stroke-width:11;stroke-miterlimit:4;stroke-dasharray:none"
     id="path3951-2"
     sodipodi:cx="129.24474"
     sodipodi:cy="127.33391"
     sodipodi:rx="17.2582"
     sodipodi:ry="14.190075"
     d="m 146.50294,127.33391 a 17.2582,14.190075 0 1 1 -34.5164,0 17.2582,14.190075 0 1 1 34.5164,0 z"
     transform="matrix(1.1588694,0,0,1.4094358,127.12045,112.39311)" /><path
     sodipodi:type="arc"
     style="fill:#ff0000;stroke-width:11;stroke-miterlimit:4;stroke-dasharray:none"
     id="path3951-7"
     sodipodi:cx="129.24474"
     sodipodi:cy="127.33391"
     sodipodi:rx="17.2582"
     sodipodi:ry="14.190075"
     d="m 146.50294,127.33391 a 17.2582,14.190075 0 1 1 -34.5164,0 17.2582,14.190075 0 1 1 34.5164,0 z"
     transform="matrix(1.1588694,0,0,1.4094358,234.5048,-68.626226)" /><path
     sodipodi:type="arc"
     style="fill:#0000ff;stroke-width:11;stroke-miterlimit:4;stroke-dasharray:none"
     id="path3951-0"
     sodipodi:cx="129.24474"
     sodipodi:cy="127.33391"
     sodipodi:rx="17.2582"
     sodipodi:ry="14.190075"
     d="m 146.50294,127.33391 a 17.2582,14.190075 0 1 1 -34.5164,0 17.2582,14.190075 0 1 1 34.5164,0 z"
     transform="matrix(1.1588694,0,0,1.4094358,241.40809,57.166872)" /><path
     sodipodi:type="arc"
     style="fill:#00ff00;stroke-width:11;stroke-miterlimit:4;stroke-dasharray:none"
     id="path3951-93"
     sodipodi:cx="129.24474"
     sodipodi:cy="127.33391"
     sodipodi:rx="17.2582"
     sodipodi:ry="14.190075"
     d="m 146.50294,127.33391 a 17.2582,14.190075 0 1 1 -34.5164,0 17.2582,14.190075 0 1 1 34.5164,0 z"
     transform="matrix(1.1588694,0,0,1.4094358,9.7646964,132.33592)" /><path
     sodipodi:type="arc"
     style="fill:#0000ff;stroke-width:11;stroke-miterlimit:4;stroke-dasharray:none"
     id="path3951-6"
     sodipodi:cx="129.24474"
     sodipodi:cy="127.33391"
     sodipodi:rx="17.2582"
     sodipodi:ry="14.190075"
     d="m 146.50294,127.33391 a 17.2582,14.190075 0 1 1 -34.5164,0 17.2582,14.190075 0 1 1 34.5164,0 z"
     transform="matrix(1.1588694,0,0,1.4094358,105.64358,-63.257008)" /><path
     sodipodi:type="arc"
     style="fill:#00ff00;stroke-width:11;stroke-miterlimit:4;stroke-dasharray:none"
     id="path3951-6-0"
     sodipodi:cx="129.24474"
     sodipodi:cy="127.33391"
     sodipodi:rx="17.2582"
     sodipodi:ry="14.190075"
     d="m 146.50294,127.33391 a 17.2582,14.190075 0 1 1 -34.5164,0 17.2582,14.190075 0 1 1 34.5164,0 z"
     transform="matrix(1.1588694,0,0,1.4094358,146.29623,21.116411)" /></svg>